VERSION		EQU	1
REVISION	EQU	15

DATE	MACRO
		dc.b '13.7.2024'
		ENDM

VERS	MACRO
		dc.b 'Codecraft 1.15'
		ENDM

VSTRING	MACRO
		dc.b 'Codecraft 1.15 (13.7.2024)',13,10,0
		ENDM

VERSTAG	MACRO
		dc.b 0,'$VER: Codecraft 1.15 (13.7.2024)',0
		ENDM
